5/20 21:13:41.305  SPELL_SUMMON,Creature-0-3062-2096-18396-144755-000062A244,"『語者』札克沙吉",0xa48,0x0,Creature-0-3062-2096-18396-144996-000062A806,"彼世形體
",0xa28,0x0,282515,"彼世形體",0x20
5/20 21:13:41.305  SPELL_CAST_START,Creature-0-3062-2096-18396-144996-000062A806,"彼世形體
",0xa48,0x0,0000000000000000,nil,0x80000000,0x80000000,282517,"恐嚇回音",0x20
5/20 21:13:41.305  SPELL_ABSORBED,Player-3663-04800409,"你會愛我-世界之樹",0x514,0x2,Creature-0-3062-2096-18396-144755-000062A244,"『語者』札克沙吉",0xa48,0x0,259756,"混亂之擁",0x30,Creature-0-3062-2096-18396-144755-000062A244,"『語者』札克沙吉",0xa48,0x0,282750,"深海監護",0x10,219,279
5/20 21:13:41.305  SPELL_DAMAGE,Player-3663-04800409,"你會愛我-世界之樹",0x514,0x2,Creature-0-3062-2096-18396-144755-000062A244,"『語者』札克沙吉",0xa48,0x0,259756,"混亂之擁",0x30,Creature-0-3062-2096-18396-144755-000062A244,0000000000000000,77636028,109446137,0,0,2700,0,295105,295105,0,3650.54,-1720.25,1345,1.1631,123,74,279,-1,48,0,0,219,nil,nil,nil
5/20 21:13:41.305  SPELL_AURA_REFRESH,Player-3663-04800409,"你會愛我-世界之樹",0x514,0x2,Creature-0-3062-2096-18396-144755-000062A244,"『語者』札克沙吉",0xa48,0x0,272970,"壓縮堅冰",0x1,DEBUFF

