5/20 21:13:41.305  SPELL_SUMMON,Creature-0-3062-2096-18396-144755-000062A244,"『語者』札克沙吉",0xa48,0x0,Creature-0-3062-2096-18396-144996-000062A806,"彼世形體
",0xa28,0x0,282515,"彼世形體",0x20
5/20 21:13:41.305  SPELL_CAST_START,Creature-0-3062-2096-18396-144996-000062A806,"彼世形體
",0xa48,0x0,0000000000000000,nil,0x80000000,0x80000000,282517,"恐嚇回音",0x20
5/20 21:13:41.305  SPELL_ABSORBED,Player-3663-04800409,"你會愛我-世界之樹",0x514,0x2,Creature-0-3062-2096-18396-144755-000062A244,"『語者』札克沙吉",0xa48,0x0,259756,"混亂之擁",0x30,Creature-0-3062-2096-18396-144755-000062A244,"『語者』札克沙吉",0xa48,0x0,282750,"深海監護",0x10,219,279
5/20 21:13:41.305  SPELL_DAMAGE,Player-3663-04800409,"你會愛我-世界之樹",0x514,0x2,Creature-0-3062-2096-18396-144755-000062A244,"『語者』札克沙吉",0xa48,0x0,259756,"混亂之擁",0x30,Creature-0-3062-2096-18396-144755-000062A244,0000000000000000,77636028,109446137,0,0,2700,0,295105,295105,0,3650.54,-1720.25,1345,1.1631,123,74,279,-1,48,0,0,219,nil,nil,nil
5/20 21:13:41.305  SPELL_AURA_REFRESH,Player-3663-04800409,"你會愛我-世界之樹",0x514,0x2,Creature-0-3062-2096-18396-144755-000062A244,"『語者』札克沙吉",0xa48,0x0,272970,"壓縮堅冰",0x1,DEBUFF
5/20 21:13:41.305  SPELL_HEAL,Player-3663-04C2A4C4,"Chrisxx-亞雷戈斯",0x514,0x20,Player-3663-04800409,"你會愛我-世界之樹",0x514,0x2,183811,"光明審判",0x2,Player-3663-04800409,0000000000000000,255630,266780,814,10656,1474,0,99288,100000,0,3640.74,-1748.51,1345,1.3356,418,675,675,0,0,nil
5/20 21:13:41.305  SPELL_ABSORBED,Player-3663-04800409,"你會愛我-世界之樹",0x514,0x2,Creature-0-3062-2096-18396-144754-000062A244,"『可怖者』法蘇爾",0x10a48,0x0,259756,"混亂之擁",0x30,Creature-0-3062-2096-18396-144754-000062A244,"『可怖者』法蘇爾",0x10a48,0x0,282750,"深海監護",0x10,220,279
5/20 21:13:41.305  SPELL_DAMAGE,Player-3663-04800409,"你會愛我-世界之樹",0x514,0x2,Creature-0-3062-2096-18396-144754-000062A244,"『可怖者』法蘇爾",0x10a48,0x0,259756,"混亂之擁",0x30,Creature-0-3062-2096-18396-144754-000062A244,0000000000000000,119395303,139989245,0,0,2700,1,0,0,0,3651.55,-1716.96,1345,6.1785,123,74,279,-1,48,0,0,220,nil,nil,nil
5/20 21:13:41.305  SPELL_AURA_REFRESH,Player-3663-04800409,"你會愛我-世界之樹",0x514,0x2,Creature-0-3062-2096-18396-144754-000062A244,"『可怖者』法蘇爾",0x10a48,0x0,272970,"壓縮堅冰",0x1,DEBUFF
5/20 21:13:41.305  SPELL_HEAL,Player-3663-04C2A4C4,"Chrisxx-亞雷戈斯",0x514,0x20,Player-3663-04800409,"你會愛我-世界之樹",0x514,0x2,183811,"光明審判",0x2,Player-3663-04800409,0000000000000000,256306,266780,814,10656,1474,0,99288,100000,0,3640.74,-1748.51,1345,1.3356,418,676,676,0,0,nil
5/20 21:13:41.305  SPELL_AURA_REFRESH,Player-3663-049581DD,"阿亮香雞排-世界之樹",0x514,0x0,Creature-0-3062-2096-18396-144755-000062A244,"『語者』札克沙吉",0xa48,0x0,272970,"壓縮堅冰",0x1,DEBUFF
5/20 21:13:41.305  SPELL_AURA_REFRESH,Player-3663-049581DD,"阿亮香雞排-世界之樹",0x514,0x0,Creature-0-3062-2096-18396-144754-000062A244,"『可怖者』法蘇爾",0x10a48,0x0,272970,"壓縮堅冰",0x1,DEBUFF
5/20 21:13:41.305  SPELL_ABSORBED,Player-3663-04821085,"Choopper-亞雷戈斯",0x514,0x1,Creature-0-3062-2096-18396-144754-000062A244,"『可怖者』法蘇爾",0x10a48,0x0,146739,"腐蝕術",0x20,Creature-0-3062-2096-18396-144754-000062A244,"『可怖者』法蘇爾",0x10a48,0x0,282750,"深海監護",0x10,4511,2864
5/20 21:13:41.305  SPELL_PERIODIC_DAMAGE,Player-3663-04821085,"Choopper-亞雷戈斯",0x514,0x1,Creature-0-3062-2096-18396-144754-000062A244,"『可怖者』法蘇爾",0x10a48,0x0,146739,"腐蝕術",0x20,Creature-0-3062-2096-18396-144754-000062A244,0000000000000000,119393799,139989245,0,0,2700,1,0,0,0,3651.55,-1716.96,1345,6.1785,123,1504,2864,-1,32,0,0,4511,1,nil,nil
5/20 21:13:41.305  SPELL_PERIODIC_HEAL,Player-3663-046C9335,"風螫-亞雷戈斯",0x512,0x0,Player-3663-04CA7D39,"福音米米-亞雷戈斯",0x512,0x0,119611,"回生迷霧",0x8,Player-3663-04CA7D39,0000000000000000,288970,288970,2774,11598,3422,0,95980,100000,0,3635.47,-1726.38,1345,0.3236,416,2424,2424,2424,0,nil
5/20 21:13:41.305  SPELL_PERIODIC_DAMAGE,Player-3663-045DAD57,"Ainaresa-亞雷戈斯",0x514,0x40,Player-3663-045DAD57,"Ainaresa-亞雷戈斯",0x514,0x40,124255,"醉仙緩勁",0x1,Player-3663-045DAD57,0000000000000000,318943,327272,11383,1290,3487,3,84,100,0,3656.22,-1717.45,1345,3.2987,416,6350,6349,-1,1,0,0,0,nil,nil,nil
5/20 21:13:41.305  SPELL_CAST_START,Player-3663-04C9D88A,"阿亮臭海鮮-世界之樹",0x514,0x0,0000000000000000,nil,0x80000000,0x80000000,190356,"暴風雪",0x10
5/20 21:13:41.357  SPELL_ABSORBED,Player-3663-04821085,"Choopper-亞雷戈斯",0x514,0x1,Creature-0-3062-2096-18396-144754-000062A244,"『可怖者』法蘇爾",0x10a48,0x0,980,"痛苦",0x20,Creature-0-3062-2096-18396-144754-000062A244,"『可怖者』法蘇爾",0x10a48,0x0,282750,"深海監護",0x10,2004,2546
5/20 21:13:41.357  SPELL_PERIODIC_DAMAGE,Player-3663-04821085,"Choopper-亞雷戈斯",0x514,0x1,Creature-0-3062-2096-18396-144754-000062A244,"『可怖者』法蘇爾",0x10a48,0x0,980,"痛苦",0x20,Creature-0-3062-2096-18396-144754-000062A244,0000000000000000,119393130,139989245,0,0,2700,1,0,0,0,3651.55,-1716.96,1345,6.1785,123,669,2546,-1,32,0,0,2004,nil,nil,nil
5/20 21:13:41.357  SPELL_CAST_SUCCESS,Pet-0-3062-1643-2467-151096-07028942F2,"哈提",0x1114,0x0,Creature-0-3062-2096-18396-144754-000062A244,"『可怖者』法蘇爾",0x10a48,0x0,16827,"爪擊",0x1,Pet-0-3062-1643-2467-151096-07028942F2,Player-3663-046901FE,22831,25113,7379,7379,6882,2,95,120,25,3650.15,-1718.93,1345,0.9537,416
5/20 21:13:41.357  SPELL_CAST_START,Creature-0-3062-2096-18396-144755-000062A244,"『語者』札克沙吉",0xa48,0x0,0000000000000000,nil,0x80000000,0x80000000,282386,"無光衝擊",0x20
5/20 21:13:41.357  SPELL_ABSORBED,Pet-0-3062-1643-2467-151096-07028942F2,"哈提",0x1114,0x0,Creature-0-3062-2096-18396-144754-000062A244,"『可怖者』法蘇爾",0x10a48,0x0,16827,"爪擊",0x1,Creature-0-3062-2096-18396-144754-000062A244,"『可怖者』法蘇爾",0x10a48,0x0,282750,"深海監護",0x10,17871,32419
5/20 21:13:41.357  SPELL_DAMAGE,Pet-0-3062-1643-2467-151096-07028942F2,"哈提",0x1114,0x0,Creature-0-3062-2096-18396-144754-000062A244,"『可怖者』法蘇爾",0x10a48,0x0,16827,"爪擊",0x1,Creature-0-3062-2096-18396-144754-000062A244,0000000000000000,119387172,139989245,0,0,2700,1,0,0,0,3651.55,-1716.96,1345,6.1785,123,5958,32419,-1,1,0,0,17871,nil,nil,nil
5/20 21:13:41.369  SPELL_PERIODIC_HEAL,Player-3663-046C9335,"風螫-亞雷戈斯",0x512,0x0,Player-3663-04800409,"你會愛我-世界之樹",0x514,0x2,191840,"精華之泉",0x8,Player-3663-04800409,0000000000000000,256826,266780,814,10656,1474,0,99288,100000,0,3640.74,-1748.51,1345,1.3030,418,520,520,0,0,nil
5/20 21:13:41.369  SWING_DAMAGE,Creature-0-3062-2096-18396-144754-000062A244,"『可怖者』法蘇爾",0x10a48,0x0,Player-3663-046CDEB5,"孤星絕-亞雷戈斯",0x514,0x0,Creature-0-3062-2096-18396-144754-000062A244,0000000000000000,119387172,139989245,0,0,2700,1,0,0,0,3651.55,-1716.96,1345,6.1785,123,25271,174393,-1,1,0,30041,25271,nil,nil,nil
5/20 21:13:41.369  SPELL_ABSORBED,Creature-0-3062-2096-18396-144754-000062A244,"『可怖者』法蘇爾",0x10a48,0x0,Player-3663-046CDEB5,"孤星絕-亞雷戈斯",0x514,0x0,Player-3663-046CDEB5,"孤星絕-亞雷戈斯",0x514,0x0,190456,"無視苦痛",0x1,25271,174393
5/20 21:13:41.369  SPELL_ENERGIZE,Player-3663-046CDEB5,"孤星絕-亞雷戈斯",0x514,0x0,Player-3663-046CDEB5,"孤星絕-亞雷戈斯",0x514,0x0,195707,"怒氣",0x1,Player-3663-046CDEB5,0000000000000000,442896,444400,14759,1097,12458,1,430,1000,0,3656.36,-1717.39,1345,3.3826,418,3.0000,0.0000,1,1000
5/20 21:13:41.369  SPELL_AURA_APPLIED,Player-3663-046CDEB5,"孤星絕-亞雷戈斯",0x514,0x0,Player-3663-046CDEB5,"孤星絕-亞雷戈斯",0x514,0x0,270576,"寶石外皮",0x1,BUFF
5/20 21:13:41.369  SWING_DAMAGE_LANDED,Creature-0-3062-2096-18396-144754-000062A244,"『可怖者』法蘇爾",0x10a48,0x0,Player-3663-046CDEB5,"孤星絕-亞雷戈斯",0x514,0x0,Player-3663-046CDEB5,0000000000000000,417625,444400,14759,1097,12795,1,430,1000,0,3656.36,-1717.39,1345,3.3826,418,25271,174393,-1,1,0,30041,25271,nil,nil,nil
5/20 21:13:41.369  SPELL_AURA_REMOVED_DOSE,Player-3663-0497F28C,"Sappheiros-亞雷戈斯",0x512,0x0,Player-3663-0497F28C,"Sappheiros-亞雷戈斯",0x512,0x0,289523,"熾熱光彩",0x1,BUFF,9
5/20 21:13:41.369  SPELL_AURA_REMOVED,Player-3663-0497F28C,"Sappheiros-亞雷戈斯",0x512,0x0,Player-3663-0497F28C,"Sappheiros-亞雷戈斯",0x512,0x0,289524,"熾熱光輝",0x1,BUFF
5/20 21:13:41.414  SPELL_PERIODIC_HEAL,Player-3663-046C9335,"風螫-亞雷戈斯",0x512,0x0,Player-3663-04C9D88A,"阿亮臭海鮮-世界之樹",0x514,0x0,191840,"精華之泉",0x8,Player-3663-04C9D88A,0000000000000000,28736,28736,1078,10607,1449,0,99188,100000,0,3639.24,-1704.86,1345,5.7355,417,1039,1039,1039,0,1
5/20 21:13:41.414  SPELL_AURA_REMOVED,Player-3663-04800409,"你會愛我-世界之樹",0x514,0x2,Player-3663-04800409,"你會愛我-世界之樹",0x514,0x2,256374,"混亂之擁",0x30,BUFF
5/20 21:13:41.414  SPELL_ABSORBED,Pet-0-3062-1643-2467-151096-07028942F2,"哈提",0x1114,0x0,Creature-0-3062-2096-18396-144755-000062A244,"『語者』札克沙吉",0xa48,0x0,118459,"獸劈斬",0x1,Creature-0-3062-2096-18396-144755-000062A244,"『語者』札克沙吉",0xa48,0x0,282750,"深海監護",0x10,13403,24315
5/20 21:13:41.414  SPELL_DAMAGE,Pet-0-3062-1643-2467-151096-07028942F2,"哈提",0x1114,0x0,Creature-0-3062-2096-18396-144755-000062A244,"『語者』札克沙吉",0xa48,0x0,118459,"獸劈斬",0x1,Creature-0-3062-2096-18396-144755-000062A244,0000000000000000,77631560,109446137,0,0,2700,0,295105,295105,0,3650.54,-1720.25,1345,5.9245,123,4468,24315,-1,1,0,0,13403,nil,nil,nil
5/20 21:13:41.414  SPELL_DAMAGE,Pet-0-3062-1643-2467-151096-07028942F2,"哈提",0x1114,0x0,Creature-0-3062-2096-18396-144996-000062A806,"彼世形體
",0xa48,0x0,118459,"獸劈斬",0x1,Creature-0-3062-2096-18396-144996-000062A806,Creature-0-3062-2096-18396-144755-000062A244,1590511,1607532,0,0,2700,3,100,100,0,3647.98,-1716.11,1345,1.1631,121,17021,24315,-1,1,0,0,0,nil,nil,nil
5/20 21:13:41.414  SPELL_PERIODIC_HEAL,Player-3663-04CA7D39,"福音米米-亞雷戈斯",0x512,0x0,Player-3663-04CA7D39,"福音米米-亞雷戈斯",0x512,0x0,61295,"激流",0x8,Player-3663-04CA7D39,0000000000000000,288970,288970,2774,11598,3422,0,95980,100000,0,3635.47,-1726.38,1345,0.3236,416,2504,2504,2504,0,nil
5/20 21:13:41.414  SPELL_ABSORBED,Player-3663-04821085,"Choopper-亞雷戈斯",0x514,0x1,Creature-0-3062-2096-18396-144755-000062A244,"『語者』札克沙吉",0xa48,0x0,146739,"腐蝕術",0x20,Creature-0-3062-2096-18396-144755-000062A244,"『語者』札克沙吉",0xa48,0x0,282750,"深海監護",0x10,2481,2864
5/20 21:13:41.414  SPELL_PERIODIC_DAMAGE,Player-3663-04821085,"Choopper-亞雷戈斯",0x514,0x1,Creature-0-3062-2096-18396-144755-000062A244,"『語者』札克沙吉",0xa48,0x0,146739,"腐蝕術",0x20,Creature-0-3062-2096-18396-144755-000062A244,0000000000000000,77630732,109446137,0,0,2700,0,295105,295105,0,3650.54,-1720.25,1345,5.9245,123,828,2864,-1,32,0,0,2481,nil,nil,nil
5/20 21:13:41.414  SPELL_ABSORBED,Player-3663-046CDEB5,"孤星絕-亞雷戈斯",0x514,0x0,Creature-0-3062-2096-18396-144755-000062A244,"『語者』札克沙吉",0xa48,0x0,115767,"重傷",0x1,Creature-0-3062-2096-18396-144755-000062A244,"『語者』札克沙吉",0xa48,0x0,282750,"深海監護",0x10,1833,2327
5/20 21:13:41.414  SPELL_PERIODIC_DAMAGE,Player-3663-046CDEB5,"孤星絕-亞雷戈斯",0x514,0x0,Creature-0-3062-2096-18396-144755-000062A244,"『語者』札克沙吉",0xa48,0x0,115767,"重傷",0x1,Creature-0-3062-2096-18396-144755-000062A244,0000000000000000,77630121,109446137,0,0,2700,0,295105,295105,0,3650.54,-1720.25,1345,5.9245,123,611,2327,-1,1,0,0,1833,nil,nil,nil
5/20 21:13:41.414  SPELL_AURA_APPLIED_DOSE,Player-3663-046CDEB5,"孤星絕-亞雷戈斯",0x514,0x0,Player-3663-046CDEB5,"孤星絕-亞雷戈斯",0x514,0x0,279902,"無定烈焰",0x4,BUFF,2
5/20 21:13:41.414  SPELL_ABSORBED,Player-3663-04868EEC,"白影瞳-亞雷戈斯",0x514,0x0,Creature-0-3062-2096-18396-144754-000062A244,"『可怖者』法蘇爾",0x10a48,0x0,190984,"太陽之怒",0x8,Creature-0-3062-2096-18396-144754-000062A244,"『可怖者』法蘇爾",0x10a48,0x0,282750,"深海監護",0x10,11325,14381
5/20 21:13:41.414  SPELL_DAMAGE,Player-3663-04868EEC,"白影瞳-亞雷戈斯",0x514,0x0,Creature-0-3062-2096-18396-144754-000062A244,"『可怖者』法蘇爾",0x10a48,0x0,190984,"太陽之怒",0x8,Creature-0-3062-2096-18396-144754-000062A244,0000000000000000,119383396,139989245,0,0,2700,1,0,0,0,3651.55,-1716.96,1345,6.1785,123,3776,14381,-1,8,0,0,11325,nil,nil,nil
5/20 21:13:41.463  SPELL_ABSORBED,Player-3663-04868EEC,"白影瞳-亞雷戈斯",0x514,0x0,Creature-0-3062-2096-18396-144755-000062A244,"『語者』札克沙吉",0xa48,0x0,279729,"太陽之怒",0x8,Creature-0-3062-2096-18396-144755-000062A244,"『語者』札克沙吉",0xa48,0x0,282750,"深海監護",0x10,1665,2114
5/20 21:13:41.463  SPELL_DAMAGE,Player-3663-04868EEC,"白影瞳-亞雷戈斯",0x514,0x0,Creature-0-3062-2096-18396-144755-000062A244,"『語者』札克沙吉",0xa48,0x0,279729,"太陽之怒",0x8,Creature-0-3062-2096-18396-144755-000062A244,0000000000000000,77629566,109446137,0,0,2700,0,295105,295105,0,3650.54,-1720.25,1345,5.9245,123,555,2114,-1,8,0,0,1665,nil,nil,nil
5/20 21:13:41.463  SPELL_DAMAGE,Player-3663-04868EEC,"白影瞳-亞雷戈斯",0x514,0x0,Creature-0-3062-2096-18396-144996-000062A806,"彼世形體
",0xa48,0x0,279729,"太陽之怒",0x8,Creature-0-3062-2096-18396-144996-000062A806,Creature-0-3062-2096-18396-144755-000062A244,1588396,1607532,0,0,2700,3,100,100,0,3647.98,-1716.11,1345,1.1631,121,2115,2114,-1,8,0,0,0,nil,nil,nil
5/20 21:13:41.463  SPELL_ABSORBED,Player-3663-04868EEC,"白影瞳-亞雷戈斯",0x514,0x0,Creature-0-3062-2096-18396-144754-000062A244,"『可怖者』法蘇爾",0x10a48,0x0,279729,"太陽之怒",0x8,Creature-0-3062-2096-18396-144754-000062A244,"『可怖者』法蘇爾",0x10a48,0x0,282750,"深海監護",0x10,1665,2114
5/20 21:13:41.463  SPELL_DAMAGE,Player-3663-04868EEC,"白影瞳-亞雷戈斯",0x514,0x0,Creature-0-3062-2096-18396-144754-000062A244,"『可怖者』法蘇爾",0x10a48,0x0,279729,"太陽之怒",0x8,Creature-0-3062-2096-18396-144754-000062A244,0000000000000000,119382841,139989245,0,0,2700,1,0,0,0,3651.55,-1716.96,1345,6.1785,123,555,2114,-1,8,0,0,1665,nil,nil,nil
5/20 21:13:41.463  SPELL_PERIODIC_ENERGIZE,Player-3663-047C9093,"Atonement-亞雷戈斯",0x514,0x0,Player-3663-047C9093,"Atonement-亞雷戈斯",0x514,0x0,15407,"精神鞭笞",0x20,Player-3663-047C9093,0000000000000000,28827,28827,813,10579,1451,13,9236,10000,0,3636.13,-1705.82,1345,5.6578,416,3.0000,0.0000,13,10000
5/20 21:13:41.463  SPELL_ABSORBED,Player-3663-047C9093,"Atonement-亞雷戈斯",0x514,0x0,Creature-0-3062-2096-18396-144754-000062A244,"『可怖者』法蘇爾",0x10a48,0x0,15407,"精神鞭笞",0x20,Creature-0-3062-2096-18396-144754-000062A244,"『可怖者』法蘇爾",0x10a48,0x0,282750,"深海監護",0x10,6373,8093
5/20 21:13:41.463  SPELL_PERIODIC_DAMAGE,Player-3663-047C9093,"Atonement-亞雷戈斯",0x514,0x0,Creature-0-3062-2096-18396-144754-000062A244,"『可怖者』法蘇爾",0x10a48,0x0,15407,"精神鞭笞",0x20,Creature-0-3062-2096-18396-144754-000062A244,0000000000000000,119380716,139989245,0,0,2700,1,0,0,0,3651.55,-1716.96,1345,6.1785,123,2125,8093,-1,32,0,0,6373,nil,nil,nil
5/20 21:13:41.463  SPELL_AURA_APPLIED,Creature-0-3062-2096-18396-144996-000062A806,"彼世形體
",0xa48,0x0,Creature-0-3062-2096-18396-144996-000062A806,"彼世形體
",0xa48,0x0,282750,"深海監護",0x10,DEBUFF
5/20 21:13:41.463  SPELL_PERIODIC_HEAL,Player-3663-046C9335,"風螫-亞雷戈斯",0x512,0x0,Player-3663-04C9A3F1,"波廿波-亞雷戈斯",0x514,0x0,191840,"精華之泉",0x8,Player-3663-04C9A3F1,0000000000000000,185080,185080,3,10574,1451,0,97480,100000,0,3635.96,-1699.26,1345,5.2957,418,519,519,519,0,nil
5/20 21:13:41.486  SPELL_PERIODIC_HEAL,Player-3663-046C9335,"風螫-亞雷戈斯",0x512,0x0,Player-3663-04C2A4C4,"Chrisxx-亞雷戈斯",0x514,0x20,119611,"回生迷霧",0x8,Player-3663-04C2A4C4,0000000000000000,404720,404720,11596,1613,7670,0,20000,20000,0,3674.94,-1729.81,1345,2.6926,418,2425,2425,2425,0,nil
5/20 21:13:41.486  SPELL_ABSORBED,Player-3663-04868EEC,"白影瞳-亞雷戈斯",0x514,0x0,Creature-0-3062-2096-18396-144754-000062A244,"『可怖者』法蘇爾",0x10a48,0x0,164815,"日炎術",0x8,Creature-0-3062-2096-18396-144754-000062A244,"『可怖者』法蘇爾",0x10a48,0x0,282750,"深海監護",0x10,3736,4745
5/20 21:13:41.486  EMOTE,Creature-0-3062-2096-18396-144996-000062A806,"彼世形體
",Creature-0-3062-2096-18396-144996-000062A806,"彼世形體
",|TInterface\Icons\SPELL_SHADOW_POSSESSION:20|t|cFFFF0000彼世形體
|r開始施放|cFFFF0000|Hspell:282517|h[恐嚇回音]|h|r！